RUN	com.aps.CreateAccount		createaccount	1521195004293	null	2.0
USER	AccountCreationSimulation	1	START	1521195005683	1521195005683
USER	AccountCreationSimulation	2	START	1521195005852	1521195005852
USER	AccountCreationSimulation	3	START	1521195005903	1521195005903
USER	AccountCreationSimulation	4	START	1521195005954	1521195005954
USER	AccountCreationSimulation	5	START	1521195006006	1521195006006
USER	AccountCreationSimulation	6	START	1521195006052	1521195006052
USER	AccountCreationSimulation	7	START	1521195006104	1521195006104
USER	AccountCreationSimulation	8	START	1521195006156	1521195006156
USER	AccountCreationSimulation	9	START	1521195006202	1521195006202
USER	AccountCreationSimulation	10	START	1521195006253	1521195006253
USER	AccountCreationSimulation	11	START	1521195006305	1521195006305
USER	AccountCreationSimulation	12	START	1521195006356	1521195006356
USER	AccountCreationSimulation	13	START	1521195006402	1521195006402
USER	AccountCreationSimulation	14	START	1521195006453	1521195006453
USER	AccountCreationSimulation	15	START	1521195006506	1521195006506
USER	AccountCreationSimulation	16	START	1521195006558	1521195006558
USER	AccountCreationSimulation	17	START	1521195006604	1521195006604
USER	AccountCreationSimulation	18	START	1521195006656	1521195006656
USER	AccountCreationSimulation	19	START	1521195006707	1521195006707
USER	AccountCreationSimulation	20	START	1521195006754	1521195006754
USER	AccountCreationSimulation	21	START	1521195006805	1521195006805
USER	AccountCreationSimulation	22	START	1521195006857	1521195006857
USER	AccountCreationSimulation	23	START	1521195006902	1521195006902
USER	AccountCreationSimulation	24	START	1521195006953	1521195006953
USER	AccountCreationSimulation	25	START	1521195007005	1521195007005
USER	AccountCreationSimulation	26	START	1521195007056	1521195007056
USER	AccountCreationSimulation	27	START	1521195007102	1521195007102
USER	AccountCreationSimulation	28	START	1521195007154	1521195007154
REQUEST	AccountCreationSimulation	1		AccountRequest	1521195005781	1521195007172	OK	 
USER	AccountCreationSimulation	29	START	1521195007207	1521195007207
USER	AccountCreationSimulation	30	START	1521195007252	1521195007252
USER	AccountCreationSimulation	31	START	1521195007305	1521195007305
USER	AccountCreationSimulation	32	START	1521195007356	1521195007356
REQUEST	AccountCreationSimulation	2		AccountRequest	1521195005853	1521195007401	OK	 
USER	AccountCreationSimulation	33	START	1521195007402	1521195007402
USER	AccountCreationSimulation	34	START	1521195007454	1521195007454
USER	AccountCreationSimulation	35	START	1521195007507	1521195007507
REQUEST	AccountCreationSimulation	4		AccountRequest	1521195005955	1521195007544	OK	 
USER	AccountCreationSimulation	36	START	1521195007553	1521195007553
REQUEST	AccountCreationSimulation	3		AccountRequest	1521195005903	1521195007578	OK	 
USER	AccountCreationSimulation	37	START	1521195007606	1521195007606
USER	AccountCreationSimulation	38	START	1521195007652	1521195007652
USER	AccountCreationSimulation	39	START	1521195007702	1521195007702
USER	AccountCreationSimulation	42	START	1521195007733	1521195007733
USER	AccountCreationSimulation	40	START	1521195007754	1521195007754
USER	AccountCreationSimulation	43	START	1521195007786	1521195007786
REQUEST	AccountCreationSimulation	12		AccountRequest	1521195006357	1521195007798	OK	 
USER	AccountCreationSimulation	41	START	1521195007806	1521195007806
USER	AccountCreationSimulation	44	START	1521195007838	1521195007838
REQUEST	AccountCreationSimulation	6		AccountRequest	1521195006053	1521195007865	OK	 
REQUEST	AccountCreationSimulation	7		AccountRequest	1521195006104	1521195007868	OK	 
REQUEST	AccountCreationSimulation	5		AccountRequest	1521195006007	1521195007877	OK	 
USER	AccountCreationSimulation	45	START	1521195007882	1521195007882
USER	AccountCreationSimulation	46	START	1521195007934	1521195007934
REQUEST	AccountCreationSimulation	8		AccountRequest	1521195006156	1521195007973	OK	 
USER	AccountCreationSimulation	47	START	1521195007986	1521195007986
USER	AccountCreationSimulation	48	START	1521195008037	1521195008037
USER	AccountCreationSimulation	49	START	1521195008083	1521195008083
REQUEST	AccountCreationSimulation	11		AccountRequest	1521195006305	1521195008085	OK	 
REQUEST	AccountCreationSimulation	10		AccountRequest	1521195006254	1521195008114	OK	 
REQUEST	AccountCreationSimulation	9		AccountRequest	1521195006203	1521195008136	OK	 
USER	AccountCreationSimulation	50	START	1521195008138	1521195008138
USER	AccountCreationSimulation	51	START	1521195008182	1521195008182
USER	AccountCreationSimulation	52	START	1521195008232	1521195008232
USER	AccountCreationSimulation	53	START	1521195008282	1521195008282
USER	AccountCreationSimulation	54	START	1521195008333	1521195008333
REQUEST	AccountCreationSimulation	15		AccountRequest	1521195006506	1521195008384	OK	 
USER	AccountCreationSimulation	55	START	1521195008385	1521195008385
REQUEST	AccountCreationSimulation	14		AccountRequest	1521195006454	1521195008400	OK	 
USER	AccountCreationSimulation	56	START	1521195008437	1521195008437
REQUEST	AccountCreationSimulation	16		AccountRequest	1521195006559	1521195008463	OK	 
USER	AccountCreationSimulation	57	START	1521195008483	1521195008483
USER	AccountCreationSimulation	58	START	1521195008535	1521195008535
USER	AccountCreationSimulation	59	START	1521195008585	1521195008585
USER	AccountCreationSimulation	60	START	1521195008633	1521195008633
USER	AccountCreationSimulation	61	START	1521195008689	1521195008689
USER	AccountCreationSimulation	62	START	1521195008733	1521195008733
REQUEST	AccountCreationSimulation	19		AccountRequest	1521195006707	1521195008766	OK	 
USER	AccountCreationSimulation	63	START	1521195008783	1521195008783
REQUEST	AccountCreationSimulation	18		AccountRequest	1521195006656	1521195008802	OK	 
USER	AccountCreationSimulation	64	START	1521195008836	1521195008836
USER	AccountCreationSimulation	65	START	1521195008886	1521195008886
REQUEST	AccountCreationSimulation	17		AccountRequest	1521195006604	1521195008891	OK	 
USER	AccountCreationSimulation	66	START	1521195008936	1521195008936
USER	AccountCreationSimulation	67	START	1521195008986	1521195008986
USER	AccountCreationSimulation	68	START	1521195009032	1521195009032
USER	AccountCreationSimulation	69	START	1521195009084	1521195009084
USER	AccountCreationSimulation	70	START	1521195009136	1521195009136
REQUEST	AccountCreationSimulation	20		AccountRequest	1521195006755	1521195009169	OK	 
USER	AccountCreationSimulation	71	START	1521195009182	1521195009182
REQUEST	AccountCreationSimulation	22		AccountRequest	1521195006857	1521195009220	OK	 
USER	AccountCreationSimulation	72	START	1521195009233	1521195009233
REQUEST	AccountCreationSimulation	24		AccountRequest	1521195006954	1521195009252	OK	 
REQUEST	AccountCreationSimulation	21		AccountRequest	1521195006806	1521195009280	OK	 
USER	AccountCreationSimulation	73	START	1521195009285	1521195009285
REQUEST	AccountCreationSimulation	13		AccountRequest	1521195006403	1521195009315	OK	 
USER	AccountCreationSimulation	74	START	1521195009336	1521195009336
USER	AccountCreationSimulation	75	START	1521195009383	1521195009383
REQUEST	AccountCreationSimulation	23		AccountRequest	1521195006903	1521195009411	OK	 
REQUEST	AccountCreationSimulation	25		AccountRequest	1521195007006	1521195009430	OK	 
USER	AccountCreationSimulation	76	START	1521195009436	1521195009436
USER	AccountCreationSimulation	77	START	1521195009482	1521195009482
REQUEST	AccountCreationSimulation	28		AccountRequest	1521195007155	1521195009500	OK	 
USER	AccountCreationSimulation	78	START	1521195009532	1521195009532
REQUEST	AccountCreationSimulation	26		AccountRequest	1521195007057	1521195009536	OK	 
REQUEST	AccountCreationSimulation	27		AccountRequest	1521195007103	1521195009544	OK	 
REQUEST	AccountCreationSimulation	33		AccountRequest	1521195007403	1521195009575	OK	 
USER	AccountCreationSimulation	79	START	1521195009583	1521195009583
USER	AccountCreationSimulation	80	START	1521195009639	1521195009639
USER	AccountCreationSimulation	81	START	1521195009687	1521195009687
REQUEST	AccountCreationSimulation	30		AccountRequest	1521195007253	1521195009707	OK	 
USER	AccountCreationSimulation	82	START	1521195009737	1521195009737
REQUEST	AccountCreationSimulation	34		AccountRequest	1521195007455	1521195009741	OK	 
REQUEST	AccountCreationSimulation	29		AccountRequest	1521195007208	1521195009782	OK	 
USER	AccountCreationSimulation	83	START	1521195009787	1521195009787
REQUEST	AccountCreationSimulation	32		AccountRequest	1521195007357	1521195009826	OK	 
USER	AccountCreationSimulation	84	START	1521195009833	1521195009833
USER	AccountCreationSimulation	85	START	1521195009883	1521195009883
USER	AccountCreationSimulation	86	START	1521195009934	1521195009934
USER	AccountCreationSimulation	87	START	1521195009984	1521195009984
REQUEST	AccountCreationSimulation	31		AccountRequest	1521195007305	1521195010028	OK	 
REQUEST	AccountCreationSimulation	42		AccountRequest	1521195007734	1521195010032	OK	 
USER	AccountCreationSimulation	88	START	1521195010034	1521195010034
REQUEST	AccountCreationSimulation	37		AccountRequest	1521195007606	1521195010039	OK	 
USER	AccountCreationSimulation	89	START	1521195010084	1521195010084
REQUEST	AccountCreationSimulation	35		AccountRequest	1521195007508	1521195010097	OK	 
REQUEST	AccountCreationSimulation	36		AccountRequest	1521195007554	1521195010126	OK	 
REQUEST	AccountCreationSimulation	40		AccountRequest	1521195007754	1521195010134	OK	 
USER	AccountCreationSimulation	90	START	1521195010134	1521195010134
REQUEST	AccountCreationSimulation	39		AccountRequest	1521195007703	1521195010136	OK	 
USER	AccountCreationSimulation	91	START	1521195010186	1521195010186
USER	AccountCreationSimulation	92	START	1521195010236	1521195010236
REQUEST	AccountCreationSimulation	38		AccountRequest	1521195007653	1521195010261	OK	 
REQUEST	AccountCreationSimulation	43		AccountRequest	1521195007786	1521195010279	OK	 
USER	AccountCreationSimulation	93	START	1521195010285	1521195010285
USER	AccountCreationSimulation	94	START	1521195010336	1521195010336
REQUEST	AccountCreationSimulation	41		AccountRequest	1521195007807	1521195010351	OK	 
USER	AccountCreationSimulation	95	START	1521195010387	1521195010387
USER	AccountCreationSimulation	96	START	1521195010432	1521195010432
REQUEST	AccountCreationSimulation	44		AccountRequest	1521195007839	1521195010467	OK	 
USER	AccountCreationSimulation	97	START	1521195010485	1521195010485
USER	AccountCreationSimulation	98	START	1521195010536	1521195010536
USER	AccountCreationSimulation	99	START	1521195010582	1521195010582
USER	AccountCreationSimulation	100	START	1521195010644	1521195010644
REQUEST	AccountCreationSimulation	45		AccountRequest	1521195007883	1521195010750	OK	 
REQUEST	AccountCreationSimulation	46		AccountRequest	1521195007934	1521195010819	OK	 
REQUEST	AccountCreationSimulation	47		AccountRequest	1521195007986	1521195010976	OK	 
REQUEST	AccountCreationSimulation	49		AccountRequest	1521195008083	1521195011061	OK	 
REQUEST	AccountCreationSimulation	48		AccountRequest	1521195008037	1521195011357	OK	 
REQUEST	AccountCreationSimulation	50		AccountRequest	1521195008138	1521195011550	OK	 
REQUEST	AccountCreationSimulation	51		AccountRequest	1521195008183	1521195011594	OK	 
REQUEST	AccountCreationSimulation	54		AccountRequest	1521195008334	1521195011677	OK	 
REQUEST	AccountCreationSimulation	55		AccountRequest	1521195008386	1521195011709	OK	 
REQUEST	AccountCreationSimulation	52		AccountRequest	1521195008233	1521195011715	OK	 
REQUEST	AccountCreationSimulation	57		AccountRequest	1521195008483	1521195011726	OK	 
REQUEST	AccountCreationSimulation	53		AccountRequest	1521195008283	1521195011785	OK	 
REQUEST	AccountCreationSimulation	60		AccountRequest	1521195008633	1521195011787	OK	 
REQUEST	AccountCreationSimulation	58		AccountRequest	1521195008535	1521195011810	OK	 
REQUEST	AccountCreationSimulation	67		AccountRequest	1521195008986	1521195011909	OK	 
REQUEST	AccountCreationSimulation	61		AccountRequest	1521195008689	1521195011909	OK	 
REQUEST	AccountCreationSimulation	56		AccountRequest	1521195008437	1521195011911	OK	 
REQUEST	AccountCreationSimulation	63		AccountRequest	1521195008784	1521195011911	OK	 
REQUEST	AccountCreationSimulation	68		AccountRequest	1521195009033	1521195011918	OK	 
REQUEST	AccountCreationSimulation	59		AccountRequest	1521195008585	1521195011918	OK	 
REQUEST	AccountCreationSimulation	64		AccountRequest	1521195008836	1521195011918	OK	 
REQUEST	AccountCreationSimulation	71		AccountRequest	1521195009183	1521195012160	OK	 
REQUEST	AccountCreationSimulation	65		AccountRequest	1521195008886	1521195012163	OK	 
REQUEST	AccountCreationSimulation	70		AccountRequest	1521195009136	1521195012164	OK	 
REQUEST	AccountCreationSimulation	66		AccountRequest	1521195008936	1521195012165	OK	 
REQUEST	AccountCreationSimulation	69		AccountRequest	1521195009084	1521195012187	OK	 
USER	AccountCreationSimulation	1	END	1521195005683	1521195012201
REQUEST	AccountCreationSimulation	62		AccountRequest	1521195008733	1521195012203	OK	 
REQUEST	AccountCreationSimulation	72		AccountRequest	1521195009233	1521195012259	OK	 
REQUEST	AccountCreationSimulation	73		AccountRequest	1521195009286	1521195012358	OK	 
USER	AccountCreationSimulation	2	END	1521195005852	1521195012406
USER	AccountCreationSimulation	4	END	1521195005954	1521195012564
USER	AccountCreationSimulation	3	END	1521195005903	1521195012597
REQUEST	AccountCreationSimulation	74		AccountRequest	1521195009337	1521195012698	OK	 
REQUEST	AccountCreationSimulation	75		AccountRequest	1521195009384	1521195012710	OK	 
USER	AccountCreationSimulation	12	END	1521195006356	1521195012815
REQUEST	AccountCreationSimulation	76		AccountRequest	1521195009437	1521195012835	OK	 
USER	AccountCreationSimulation	6	END	1521195006052	1521195012886
USER	AccountCreationSimulation	7	END	1521195006104	1521195012887
USER	AccountCreationSimulation	5	END	1521195006006	1521195012897
REQUEST	AccountCreationSimulation	77		AccountRequest	1521195009483	1521195012941	OK	 
USER	AccountCreationSimulation	8	END	1521195006156	1521195012983
USER	AccountCreationSimulation	11	END	1521195006305	1521195013106
USER	AccountCreationSimulation	10	END	1521195006253	1521195013133
USER	AccountCreationSimulation	9	END	1521195006202	1521195013143
REQUEST	AccountCreationSimulation	78		AccountRequest	1521195009533	1521195013347	OK	 
USER	AccountCreationSimulation	15	END	1521195006506	1521195013395
USER	AccountCreationSimulation	14	END	1521195006453	1521195013417
USER	AccountCreationSimulation	16	END	1521195006558	1521195013474
REQUEST	AccountCreationSimulation	84		AccountRequest	1521195009834	1521195013610	OK	 
REQUEST	AccountCreationSimulation	79		AccountRequest	1521195009583	1521195013610	OK	 
REQUEST	AccountCreationSimulation	80		AccountRequest	1521195009639	1521195013611	OK	 
REQUEST	AccountCreationSimulation	83		AccountRequest	1521195009787	1521195013611	OK	 
REQUEST	AccountCreationSimulation	82		AccountRequest	1521195009737	1521195013632	OK	 
REQUEST	AccountCreationSimulation	85		AccountRequest	1521195009883	1521195013635	OK	 
REQUEST	AccountCreationSimulation	88		AccountRequest	1521195010034	1521195013763	OK	 
USER	AccountCreationSimulation	19	END	1521195006707	1521195013785
USER	AccountCreationSimulation	18	END	1521195006656	1521195013817
REQUEST	AccountCreationSimulation	81		AccountRequest	1521195009687	1521195013846	OK	 
REQUEST	AccountCreationSimulation	92		AccountRequest	1521195010237	1521195013882	OK	 
REQUEST	AccountCreationSimulation	90		AccountRequest	1521195010135	1521195013882	OK	 
USER	AccountCreationSimulation	17	END	1521195006604	1521195013908
REQUEST	AccountCreationSimulation	91		AccountRequest	1521195010187	1521195013917	OK	 
REQUEST	AccountCreationSimulation	94		AccountRequest	1521195010336	1521195013918	OK	 
REQUEST	AccountCreationSimulation	87		AccountRequest	1521195009984	1521195013921	OK	 
REQUEST	AccountCreationSimulation	86		AccountRequest	1521195009934	1521195013920	OK	 
REQUEST	AccountCreationSimulation	93		AccountRequest	1521195010285	1521195013949	OK	 
REQUEST	AccountCreationSimulation	96		AccountRequest	1521195010433	1521195013975	OK	 
REQUEST	AccountCreationSimulation	89		AccountRequest	1521195010084	1521195013982	OK	 
REQUEST	AccountCreationSimulation	95		AccountRequest	1521195010387	1521195014089	OK	 
REQUEST	AccountCreationSimulation	100		AccountRequest	1521195010644	1521195014089	OK	 
REQUEST	AccountCreationSimulation	99		AccountRequest	1521195010583	1521195014109	OK	 
REQUEST	AccountCreationSimulation	98		AccountRequest	1521195010537	1521195014135	OK	 
REQUEST	AccountCreationSimulation	97		AccountRequest	1521195010486	1521195014136	OK	 
USER	AccountCreationSimulation	20	END	1521195006754	1521195014173
USER	AccountCreationSimulation	22	END	1521195006857	1521195014237
USER	AccountCreationSimulation	24	END	1521195006953	1521195014266
USER	AccountCreationSimulation	21	END	1521195006805	1521195014292
USER	AccountCreationSimulation	13	END	1521195006402	1521195014323
USER	AccountCreationSimulation	23	END	1521195006902	1521195014426
USER	AccountCreationSimulation	25	END	1521195007005	1521195014446
USER	AccountCreationSimulation	28	END	1521195007154	1521195014503
USER	AccountCreationSimulation	26	END	1521195007056	1521195014543
USER	AccountCreationSimulation	27	END	1521195007102	1521195014564
USER	AccountCreationSimulation	33	END	1521195007402	1521195014596
USER	AccountCreationSimulation	30	END	1521195007252	1521195014723
USER	AccountCreationSimulation	34	END	1521195007454	1521195014753
USER	AccountCreationSimulation	29	END	1521195007207	1521195014793
USER	AccountCreationSimulation	32	END	1521195007356	1521195014833
USER	AccountCreationSimulation	31	END	1521195007305	1521195015044
USER	AccountCreationSimulation	42	END	1521195007733	1521195015044
USER	AccountCreationSimulation	37	END	1521195007606	1521195015054
USER	AccountCreationSimulation	35	END	1521195007507	1521195015116
USER	AccountCreationSimulation	40	END	1521195007754	1521195015147
USER	AccountCreationSimulation	36	END	1521195007553	1521195015147
USER	AccountCreationSimulation	39	END	1521195007702	1521195015148
USER	AccountCreationSimulation	38	END	1521195007652	1521195015276
USER	AccountCreationSimulation	43	END	1521195007786	1521195015298
USER	AccountCreationSimulation	41	END	1521195007806	1521195015365
USER	AccountCreationSimulation	44	END	1521195007838	1521195015485
USER	AccountCreationSimulation	45	END	1521195007882	1521195015763
USER	AccountCreationSimulation	46	END	1521195007934	1521195015835
USER	AccountCreationSimulation	47	END	1521195007986	1521195015995
USER	AccountCreationSimulation	49	END	1521195008083	1521195016077
USER	AccountCreationSimulation	48	END	1521195008037	1521195016377
USER	AccountCreationSimulation	50	END	1521195008138	1521195016565
USER	AccountCreationSimulation	51	END	1521195008182	1521195016607
USER	AccountCreationSimulation	54	END	1521195008333	1521195016693
USER	AccountCreationSimulation	55	END	1521195008385	1521195016725
USER	AccountCreationSimulation	52	END	1521195008232	1521195016736
USER	AccountCreationSimulation	57	END	1521195008483	1521195016736
USER	AccountCreationSimulation	60	END	1521195008633	1521195016797
USER	AccountCreationSimulation	53	END	1521195008282	1521195016797
USER	AccountCreationSimulation	58	END	1521195008535	1521195016827
USER	AccountCreationSimulation	56	END	1521195008437	1521195016926
USER	AccountCreationSimulation	63	END	1521195008783	1521195016925
USER	AccountCreationSimulation	67	END	1521195008986	1521195016926
USER	AccountCreationSimulation	61	END	1521195008689	1521195016927
USER	AccountCreationSimulation	59	END	1521195008585	1521195016935
USER	AccountCreationSimulation	64	END	1521195008836	1521195016936
USER	AccountCreationSimulation	68	END	1521195009032	1521195016935
USER	AccountCreationSimulation	71	END	1521195009182	1521195017175
USER	AccountCreationSimulation	65	END	1521195008886	1521195017175
USER	AccountCreationSimulation	70	END	1521195009136	1521195017176
USER	AccountCreationSimulation	66	END	1521195008936	1521195017176
USER	AccountCreationSimulation	69	END	1521195009084	1521195017208
USER	AccountCreationSimulation	62	END	1521195008733	1521195017213
USER	AccountCreationSimulation	72	END	1521195009233	1521195017282
USER	AccountCreationSimulation	73	END	1521195009285	1521195017377
USER	AccountCreationSimulation	74	END	1521195009336	1521195017703
USER	AccountCreationSimulation	75	END	1521195009383	1521195017713
USER	AccountCreationSimulation	76	END	1521195009436	1521195017853
USER	AccountCreationSimulation	77	END	1521195009482	1521195017955
USER	AccountCreationSimulation	78	END	1521195009532	1521195018365
USER	AccountCreationSimulation	79	END	1521195009583	1521195018617
USER	AccountCreationSimulation	84	END	1521195009833	1521195018617
USER	AccountCreationSimulation	80	END	1521195009639	1521195018617
USER	AccountCreationSimulation	83	END	1521195009787	1521195018617
USER	AccountCreationSimulation	85	END	1521195009883	1521195018647
USER	AccountCreationSimulation	82	END	1521195009737	1521195018647
USER	AccountCreationSimulation	88	END	1521195010034	1521195018775
USER	AccountCreationSimulation	81	END	1521195009687	1521195018853
USER	AccountCreationSimulation	90	END	1521195010134	1521195018894
USER	AccountCreationSimulation	92	END	1521195010236	1521195018894
USER	AccountCreationSimulation	87	END	1521195009984	1521195018935
USER	AccountCreationSimulation	94	END	1521195010336	1521195018935
USER	AccountCreationSimulation	86	END	1521195009934	1521195018935
USER	AccountCreationSimulation	91	END	1521195010186	1521195018935
USER	AccountCreationSimulation	93	END	1521195010285	1521195018966
USER	AccountCreationSimulation	96	END	1521195010432	1521195018987
USER	AccountCreationSimulation	89	END	1521195010084	1521195018998
USER	AccountCreationSimulation	95	END	1521195010387	1521195019106
USER	AccountCreationSimulation	100	END	1521195010644	1521195019106
USER	AccountCreationSimulation	99	END	1521195010582	1521195019126
USER	AccountCreationSimulation	98	END	1521195010536	1521195019147
USER	AccountCreationSimulation	97	END	1521195010485	1521195019147
